check,name
check_bank_CPS,bank_CPS
check_bank_UKB_kuk,bank_UKB_kuk
check_bank_SKM_kounicova,bank_SKM_kounicova
check_bank_SKM_komarov,bank_SKM_komarov
check_bank_PED_knihovna,bank_PED_knihovna
check_bank_FSS_knihovna,bank_FSS_knihovna
check_bank_PHIL_knihovna,bank_PHIL_knihovna
check_bank_PHIL_B2,bank_PHIL_B2
check_bank_SKM_vinarska,bank_SKM_vinarska
check_bank_SCI,bank_SCI
check_bank_ESF,bank_ESF
check_bank_LAW,bank_LAW
check_bank_SKM_manesova,bank_SKM_manesova
check_bank_SKM_klacelova,bank_SKM_klacelova
check_bank_FI-hala,bank_FI-hala
